vocabulary_id,vocabulary_name,vocabulary_reference,vocabulary_version,vocabulary_concept_id,m_project_id
OSIRIS - ATC,ATC,https://framagit.org/interchu/conceptual-mapping/tree/master/terminologies/osiris,2019-06-05,2002143759,6
LILLE - ccam,ccam,https://framagit.org/interchu/conceptual-mapping/tree/master/terminologies/lille,2019-06-05,2002143779,1
LILLE - cim10,cim10,https://framagit.org/interchu/conceptual-mapping/tree/master/terminologies/lille,2019-06-05,2002143780,1
BDX - ccam,ccam,https://framagit.org/interchu/conceptual-mapping/tree/master/terminologies/bdx,2019-06-05,2002143800,4
BDX - cim10,cim10,https://framagit.org/interchu/conceptual-mapping/tree/master/terminologies/bdx,2019-06-05,2002143801,4
